COQAUX1 0db2166875f4b2b53ab222c0308ac46d /home/joseph/Programming/co/test.v
23 113 context_used ""
115 194 context_used ""
274 359 context_used ""
417 512 context_used ""
563 649 context_used ""
699 823 context_used ""
877 968 context_used ""
1020 1125 context_used ""
