COQAUX1 58005900db3e0c291b25a1edb5a81626 /home/joseph/Programming/coq/LF/Basics.v
3247 3356 context_used ""
3247 3356 context_used ""
3247 3356 context_used ""
3519 3755 context_used ""
0 0 VernacProof "tac:no using:no"
5359 5363 proof_build_time "0.001"
0 0 test_next_weekday "0.001"
5359 5363 context_used ""
5359 5363 proof_check_time "0.000"
9050 9094 context_used ""
9050 9094 context_used ""
9050 9094 context_used ""
9661 9753 context_used ""
9755 9857 context_used ""
9859 9959 context_used ""
0 0 VernacProof "tac:no using:no"
10331 10335 proof_build_time "0.001"
0 0 test_orb1 "0.001"
10331 10335 context_used ""
10331 10335 proof_check_time "0.000"
0 0 VernacProof "tac:no using:no"
10411 10415 proof_build_time "0.001"
0 0 test_orb2 "0.001"
10411 10415 context_used ""
10411 10415 proof_check_time "0.000"
0 0 VernacProof "tac:no using:no"
10490 10494 proof_build_time "0.000"
0 0 test_orb3 "0.000"
10490 10494 context_used ""
10490 10494 proof_check_time "0.000"
0 0 VernacProof "tac:no using:no"
10569 10573 proof_build_time "0.001"
0 0 test_orb4 "0.001"
10569 10573 context_used ""
10569 10573 proof_check_time "0.000"
0 0 VernacProof "tac:no using:no"
10910 10914 proof_build_time "0.001"
0 0 test_orb5 "0.001"
10910 10914 context_used ""
10910 10914 proof_check_time "0.000"
11869 11936 context_used ""
0 0 VernacProof "tac:no using:no"
12027 12031 proof_build_time "0.000"
0 0 test_nandb1 "0.000"
12027 12031 context_used ""
12027 12031 proof_check_time "0.000"
0 0 VernacProof "tac:no using:no"
12122 12126 proof_build_time "0.000"
0 0 test_nandb2 "0.000"
12122 12126 context_used ""
12122 12126 proof_check_time "0.000"
0 0 VernacProof "tac:no using:no"
12216 12220 proof_build_time "0.001"
0 0 test_nandb3 "0.001"
12216 12220 context_used ""
12216 12220 proof_check_time "0.000"
0 0 VernacProof "tac:no using:no"
12310 12314 proof_build_time "0.000"
0 0 test_nandb4 "0.000"
12310 12314 context_used ""
12310 12314 proof_check_time "0.000"
12526 12606 context_used ""
0 0 VernacProof "tac:no using:no"
12704 12708 proof_build_time "0.001"
0 0 test_andb31 "0.001"
12704 12708 context_used ""
12704 12708 proof_check_time "0.000"
0 0 VernacProof "tac:no using:no"
12806 12810 proof_build_time "0.001"
0 0 test_andb32 "0.001"
12806 12810 context_used ""
12806 12810 proof_check_time "0.000"
0 0 VernacProof "tac:no using:no"
12908 12912 proof_build_time "0.000"
0 0 test_andb33 "0.000"
12908 12912 context_used ""
12908 12912 proof_check_time "0.000"
0 0 VernacProof "tac:no using:no"
13010 13014 proof_build_time "0.000"
0 0 test_andb34 "0.000"
13010 13014 context_used ""
13010 13014 proof_check_time "0.000"
14359 14410 context_used ""
14359 14410 context_used ""
14359 14410 context_used ""
14412 14480 context_used ""
14412 14480 context_used ""
14412 14480 context_used ""
15593 15717 context_used ""
15952 16097 context_used ""
16832 16870 context_used ""
16832 16870 context_used ""
16832 16870 context_used ""
16872 16928 context_used ""
16872 16928 context_used ""
16872 16928 context_used ""
17320 17449 context_used ""
20259 20305 context_used ""
20259 20305 context_used ""
20259 20305 context_used ""
22104 22160 context_used ""
22104 22160 context_used ""
22104 22160 context_used ""
22456 22542 context_used ""
23042 23151 context_used ""
24473 24595 context_used ""
24701 24754 context_used ""
0 0 VernacProof "tac:no using:no"
24822 24826 proof_build_time "0.001"
0 0 test_oddb1 "0.001"
24822 24826 context_used ""
24822 24826 proof_check_time "0.000"
0 0 VernacProof "tac:no using:no"
24887 24891 proof_build_time "0.000"
0 0 test_oddb2 "0.000"
24887 24891 context_used ""
24887 24891 proof_check_time "0.000"
25199 25304 context_used ""
26063 26165 context_used ""
0 0 VernacProof "tac:no using:no"
26224 26228 proof_build_time "0.001"
0 0 test_mult1 "0.001"
26224 26228 context_used ""
26224 26228 proof_check_time "0.000"
26313 26447 context_used ""
26484 26601 context_used ""
26828 26931 context_used ""
0 0 VernacProof "tac:no using:no"
27013 27017 proof_build_time "0.002"
0 0 test_factorial1 "0.002"
27013 27017 context_used ""
27013 27017 proof_check_time "0.000"
0 0 VernacProof "tac:no using:no"
27102 27106 proof_build_time "0.001"
0 0 test_factorial2 "0.001"
27102 27106 context_used ""
27102 27106 proof_check_time "0.002"
28553 28788 context_used ""
28931 29087 context_used ""
0 0 VernacProof "tac:no using:no"
29166 29170 proof_build_time "0.001"
0 0 test_leb1 "0.001"
29166 29170 context_used ""
29166 29170 proof_check_time "0.000"
0 0 VernacProof "tac:no using:no"
29248 29252 proof_build_time "0.001"
0 0 test_leb2 "0.001"
29248 29252 context_used ""
29248 29252 proof_check_time "0.000"
0 0 VernacProof "tac:no using:no"
29331 29335 proof_build_time "0.001"
0 0 test_leb3 "0.001"
29331 29335 context_used ""
29331 29335 proof_check_time "0.000"
0 0 VernacProof "tac:no using:no"
29633 29637 proof_build_time "0.001"
0 0 test_leb3' "0.001"
29633 29637 context_used ""
29633 29637 proof_check_time "0.000"
29993 30063 context_used ""
0 0 VernacProof "tac:no using:no"
30203 30207 proof_build_time "0.001"
0 0 test_ltb1 "0.001"
30203 30207 context_used ""
30203 30207 proof_check_time "0.000"
0 0 VernacProof "tac:no using:no"
30285 30289 proof_build_time "0.001"
0 0 test_ltb2 "0.001"
30285 30289 context_used ""
30285 30289 proof_check_time "0.000"
0 0 VernacProof "tac:no using:no"
30368 30372 proof_build_time "0.001"
0 0 test_ltb3 "0.001"
30368 30372 context_used ""
30368 30372 proof_check_time "0.000"
0 0 VernacProof "tac:no using:no"
31418 31422 proof_build_time "0.001"
0 0 plus_O_n "0.001"
31418 31422 context_used ""
31418 31422 proof_check_time "0.000"
0 0 VernacProof "tac:no using:no"
32385 32389 proof_build_time "0.001"
0 0 plus_O_n' "0.001"
32385 32389 context_used ""
32385 32389 proof_check_time "0.000"
0 0 VernacProof "tac:no using:no"
34350 34354 proof_build_time "0.001"
0 0 plus_1_l "0.001"
34350 34354 context_used ""
34350 34354 proof_check_time "0.000"
0 0 VernacProof "tac:no using:no"
34433 34437 proof_build_time "0.001"
0 0 mult_0_l "0.001"
34433 34437 context_used ""
34433 34437 proof_check_time "0.000"
0 0 VernacProof "tac:no using:no"
36103 36107 proof_build_time "0.001"
0 0 plus_id_example "0.001"
36103 36107 context_used ""
36103 36107 proof_check_time "0.000"
0 0 VernacProof "tac:no using:no"
37039 37043 proof_build_time "0.002"
0 0 plus_id_exercise "0.002"
37039 37043 context_used ""
37039 37043 proof_check_time "0.000"
0 0 VernacProof "tac:no using:no"
38134 38138 proof_build_time "0.001"
0 0 mult_0_plus "0.001"
38134 38138 context_used ""
38134 38138 proof_check_time "0.000"
0 0 VernacProof "tac:no using:no"
38344 38348 proof_build_time "0.001"
0 0 mult_S_1 "0.001"
38344 38348 context_used ""
38344 38348 proof_check_time "0.000"
0 0 VernacProof "tac:no using:no"
39120 39126 proof_build_time "0.000"
39120 39126 proof_check_time "0.000"
0 0 VernacProof "tac:no using:no"
40155 40159 proof_build_time "0.002"
0 0 plus_1_neq_0 "0.002"
40155 40159 context_used ""
40155 40159 proof_check_time "0.001"
0 0 VernacProof "tac:no using:no"
43641 43645 proof_build_time "0.002"
0 0 negb_involutive "0.002"
43641 43645 context_used ""
43641 43645 proof_check_time "0.000"
0 0 VernacProof "tac:no using:no"
44570 44574 proof_build_time "0.004"
0 0 andb_commutative "0.004"
44570 44574 context_used ""
44570 44574 proof_check_time "0.001"
0 0 VernacProof "tac:no using:no"
45216 45220 proof_build_time "0.004"
0 0 andb_commutative' "0.004"
45216 45220 context_used ""
45216 45220 proof_check_time "0.001"
0 0 VernacProof "tac:no using:no"
45920 45924 proof_build_time "0.010"
0 0 andb3_exchange "0.010"
45920 45924 context_used ""
45920 45924 proof_check_time "0.001"
0 0 VernacProof "tac:no using:no"
46743 46747 proof_build_time "0.001"
0 0 plus_1_neq_0' "0.001"
46743 46747 context_used ""
46743 46747 proof_check_time "0.000"
0 0 VernacProof "tac:no using:no"
46971 46975 proof_build_time "0.002"
0 0 andb_commutative'' "0.002"
46971 46975 context_used ""
46971 46975 proof_check_time "0.000"
0 0 VernacProof "tac:no using:no"
47405 47409 proof_build_time "0.005"
0 0 andb_true_elim2 "0.005"
47405 47409 context_used ""
47405 47409 proof_check_time "0.001"
0 0 VernacProof "tac:no using:no"
47619 47623 proof_build_time "0.002"
0 0 zero_nbeq_plus_1 "0.002"
47619 47623 context_used ""
47619 47623 proof_check_time "0.000"
50078 50181 context_used ""
0 0 VernacProof "tac:no using:no"
52327 52331 proof_build_time "0.002"
0 0 identity_fn_applied_twice "0.002"
52327 52331 context_used ""
52327 52331 proof_check_time "0.000"
0 0 VernacProof "tac:no using:no"
52540 52544 proof_build_time "0.003"
0 0 identity "0.003"
52540 52544 context_used ""
52540 52544 proof_check_time "0.001"
0 0 VernacProof "tac:no using:no"
53080 53084 proof_build_time "0.004"
0 0 negationIdentity "0.004"
53080 53084 context_used ""
53080 53084 proof_check_time "0.001"
53393 53477 context_used ""
0 0 VernacProof "tac:no using:no"
54095 54099 proof_build_time "0.005"
0 0 andb_eq_orb "0.005"
54095 54099 context_used ""
54095 54099 proof_check_time "0.001"
55410 55472 context_used ""
55410 55472 context_used ""
55410 55472 context_used ""
55657 55769 context_used ""
55771 55914 context_used ""
0 0 VernacProof "tac:no using:no"
56461 56465 proof_build_time "0.000"
0 0 test_bin_incr1 "0.000"
56461 56465 context_used ""
56461 56465 proof_check_time "0.000"
0 0 VernacProof "tac:no using:no"
56574 56578 proof_build_time "0.004"
0 0 test_bin_incr2 "0.004"
56574 56578 context_used ""
56574 56578 proof_check_time "0.000"
0 0 VernacProof "tac:no using:no"
56685 56689 proof_build_time "0.008"
0 0 test_bin_incr3 "0.008"
56685 56689 context_used ""
56685 56689 proof_check_time "0.001"
0 0 VernacProof "tac:no using:no"
56782 56786 proof_build_time "0.001"
0 0 test_bin_incr4 "0.001"
56782 56786 context_used ""
56782 56786 proof_check_time "0.000"
0 0 VernacProof "tac:no using:no"
56897 56901 proof_build_time "0.000"
0 0 test_bin_incr5 "0.000"
56897 56901 context_used ""
56897 56901 proof_check_time "0.000"
56943 57008 context_used ""
0 0 vo_compile_time "0.497"
