COQAUX1 beca870bc460e00325a7e43fe433bfe8 /home/joseph/Programming/coq/LF/Induction.v
0 0 VernacProof "tac:no using:no"
4549 4555 proof_build_time "0.001"
4549 4555 proof_check_time "0.000"
0 0 VernacProof "tac:no using:no"
5043 5049 proof_build_time "0.002"
5043 5049 proof_check_time "0.000"
0 0 VernacProof "tac:no using:no"
6313 6317 proof_build_time "0.002"
0 0 plus_n_O "0.002"
6313 6317 context_used ""
6313 6317 proof_check_time "0.000"
0 0 VernacProof "tac:no using:no"
7565 7569 proof_build_time "0.002"
0 0 minus_diag "0.002"
7565 7569 context_used ""
7565 7569 proof_check_time "0.000"
0 0 VernacProof "tac:no using:no"
8106 8110 proof_build_time "0.002"
0 0 mult_0_r "0.002"
8106 8110 context_used ""
8106 8110 proof_check_time "0.000"
0 0 VernacProof "tac:no using:no"
8284 8288 proof_build_time "0.002"
0 0 plus_n_Sm "0.002"
8284 8288 context_used ""
8284 8288 proof_check_time "0.001"
0 0 VernacProof "tac:no using:no"
8505 8509 proof_build_time "0.003"
0 0 plus_comm "0.003"
8505 8509 context_used ""
8505 8509 proof_check_time "0.001"
0 0 VernacProof "tac:no using:no"
8692 8696 proof_build_time "0.002"
0 0 plus_assoc "0.002"
8692 8696 context_used ""
8692 8696 proof_check_time "0.001"
8831 8920 context_used ""
0 0 VernacProof "tac:no using:no"
9164 9168 proof_build_time "0.003"
0 0 double_plus "0.003"
9164 9168 context_used ""
9164 9168 proof_check_time "0.001"
0 0 VernacProof "tac:no using:no"
9797 9801 proof_build_time "0.003"
0 0 evenb_S "0.003"
9797 9801 context_used ""
9797 9801 proof_check_time "0.001"
10289 10366 context_used ""
0 0 VernacProof "tac:no using:no"
11346 11350 proof_build_time "0.002"
0 0 mult_0_plus' "0.002"
11346 11350 context_used ""
11346 11350 proof_check_time "0.000"
0 0 VernacProof "tac:no using:no"
13151 13157 proof_build_time "0.001"
13151 13157 proof_check_time "0.000"
0 0 VernacProof "tac:no using:no"
13646 13650 proof_build_time "0.002"
0 0 plus_rearrange "0.002"
13646 13650 context_used ""
13646 13650 proof_check_time "0.000"
0 0 VernacProof "tac:no using:no"
16678 16682 proof_build_time "0.002"
0 0 plus_assoc' "0.002"
16678 16682 context_used ""
16678 16682 proof_check_time "0.001"
0 0 VernacProof "tac:no using:no"
17097 17101 proof_build_time "0.002"
0 0 plus_assoc'' "0.002"
17097 17101 context_used ""
17097 17101 proof_check_time "0.001"
0 0 VernacProof "tac:no using:no"
18877 18881 proof_build_time "0.003"
0 0 plus_comm' "0.003"
18877 18881 context_used ""
18877 18881 proof_check_time "0.001"
19825 19902 context_used ""
0 0 VernacProof "tac:no using:no"
21279 21283 proof_build_time "0.005"
0 0 plus_swap "0.005"
21279 21283 context_used ""
21279 21283 proof_check_time "0.001"
0 0 VernacProof "tac:no using:no"
21664 21668 proof_build_time "0.002"
0 0 mult_m_0 "0.002"
21664 21668 context_used ""
21664 21668 proof_check_time "0.000"
0 0 VernacProof "tac:no using:no"
21872 21876 proof_build_time "0.004"
0 0 mult_add "0.004"
21872 21876 context_used ""
21872 21876 proof_check_time "0.001"
0 0 VernacProof "tac:no using:no"
22092 22096 proof_build_time "0.004"
0 0 mult_comm "0.004"
22092 22096 context_used ""
22092 22096 proof_check_time "0.001"
0 0 VernacProof "tac:no using:no"
22784 22788 proof_build_time "0.003"
0 0 leb_refl "0.003"
22784 22788 context_used ""
22784 22788 proof_check_time "0.000"
0 0 VernacProof "tac:no using:no"
22880 22884 proof_build_time "0.001"
0 0 zero_nbeq_S "0.001"
22880 22884 context_used ""
22880 22884 proof_check_time "0.000"
0 0 VernacProof "tac:no using:no"
23024 23028 proof_build_time "0.002"
0 0 andb_false_r "0.002"
23024 23028 context_used ""
23024 23028 proof_check_time "0.000"
0 0 VernacProof "tac:no using:no"
23261 23265 proof_build_time "0.003"
0 0 plus_ble_compat_l "0.003"
23261 23265 context_used ""
23261 23265 proof_check_time "0.001"
0 0 VernacProof "tac:no using:no"
23361 23365 proof_build_time "0.001"
0 0 S_nbeq_0 "0.001"
23361 23365 context_used ""
23361 23365 proof_check_time "0.000"
0 0 VernacProof "tac:no using:no"
23479 23483 proof_build_time "0.001"
0 0 mult_1_l "0.001"
23479 23483 context_used ""
23479 23483 proof_check_time "0.000"
0 0 VernacProof "tac:no using:no"
23777 23781 proof_build_time "0.006"
0 0 all3_spec "0.006"
23777 23781 context_used ""
23777 23781 proof_check_time "0.001"
0 0 VernacProof "tac:no using:no"
24294 24298 proof_build_time "0.010"
0 0 mult_plus_distr_r "0.010"
24294 24298 context_used ""
24294 24298 proof_check_time "0.002"
0 0 VernacProof "tac:no using:no"
24819 24823 proof_build_time "0.009"
0 0 mult_assoc "0.009"
24819 24823 context_used ""
24819 24823 proof_check_time "0.002"
0 0 VernacProof "tac:no using:no"
25410 25414 proof_build_time "0.002"
0 0 eqb_refl "0.002"
25410 25414 context_used ""
25410 25414 proof_check_time "0.000"
0 0 VernacProof "tac:no using:no"
26211 26215 proof_build_time "0.041"
0 0 plus_swap' "0.041"
26211 26215 context_used ""
26211 26215 proof_check_time "0.000"
0 0 VernacProof "tac:no using:no"
27665 27669 proof_build_time "0.004"
0 0 bin_is_nat "0.004"
27665 27669 context_used ""
27665 27669 proof_check_time "0.001"
27712 27785 context_used ""
28134 28240 context_used ""
0 0 VernacProof "tac:no using:no"
28749 28753 proof_build_time "0.002"
0 0 nat_bin_nat "0.002"
28749 28753 context_used ""
28749 28753 proof_check_time "0.000"
28796 28871 context_used ""
0 0 VernacProof "tac:no using:no"
29392 29396 proof_build_time "0.000"
0 0 problem_for_bin "0.000"
29392 29396 context_used ""
29392 29396 proof_check_time "0.000"
0 0 VernacProof "tac:no using:no"
29496 29500 proof_build_time "0.001"
0 0 problem_for_bin2 "0.001"
29496 29500 context_used ""
29496 29500 proof_check_time "0.000"
29562 29637 context_used ""
30387 30477 context_used ""
0 0 VernacProof "tac:no using:no"
30648 30652 proof_build_time "0.001"
0 0 incr_double_rev "0.001"
30648 30652 context_used ""
30648 30652 proof_check_time "0.000"
30654 30797 context_used ""
0 0 VernacProof "tac:no using:no"
31062 31066 proof_build_time "0.002"
0 0 nat_to_bin_double "0.002"
31062 31066 context_used ""
31062 31066 proof_check_time "0.001"
0 0 VernacProof "tac:no using:no"
31220 31224 proof_build_time "0.001"
0 0 double_then_incr "0.001"
31220 31224 context_used ""
31220 31224 proof_check_time "0.000"
0 0 VernacProof "tac:no using:no"
31607 31611 proof_build_time "0.004"
0 0 normalized_good "0.004"
31607 31611 context_used ""
31607 31611 proof_check_time "0.001"
0 0 VernacProof "tac:no using:no"
31820 31824 proof_build_time "0.001"
0 0 normalize_double "0.001"
31820 31824 context_used ""
31820 31824 proof_check_time "0.000"
0 0 VernacProof "tac:no using:no"
32100 32104 proof_build_time "0.002"
0 0 normalize_idempotent "0.002"
32100 32104 context_used ""
32100 32104 proof_check_time "0.000"
0 0 VernacProof "tac:no using:no"
32279 32283 proof_build_time "0.001"
0 0 preserves_value "0.001"
32279 32283 context_used ""
32279 32283 proof_check_time "0.000"
32327 32402 context_used ""
0 0 vo_compile_time "0.551"
