COQAUX1 1aa4a5718d4ed59847809b09f3557eb8 /home/joseph/Programming/coq/LF/Lists.v
397 446 context_used ""
397 446 context_used ""
397 446 context_used ""
732 809 context_used ""
811 888 context_used ""
1302 1377 context_used ""
1379 1454 context_used ""
1456 1544 context_used ""
0 0 VernacProof "tac:no using:no"
2998 3002 proof_build_time "0.001"
0 0 surjective_pairing' "0.001"
2998 3002 context_used ""
2998 3002 proof_check_time "0.000"
0 0 VernacProof "tac:no using:no"
3219 3225 proof_build_time "0.000"
3219 3225 proof_check_time "0.000"
0 0 VernacProof "tac:no using:no"
3518 3522 proof_build_time "0.002"
0 0 surjective_pairing "0.002"
3518 3522 context_used ""
3518 3522 proof_check_time "0.001"
0 0 VernacProof "tac:no using:no"
3928 3932 proof_build_time "0.001"
0 0 snd_fst_is_swap "0.001"
3928 3932 context_used ""
3928 3932 proof_check_time "0.000"
0 0 VernacProof "tac:no using:no"
4156 4160 proof_build_time "0.002"
0 0 fst_swap_is_snd "0.002"
4156 4160 context_used ""
4156 4160 proof_check_time "0.000"
4462 4531 context_used ""
4462 4531 context_used ""
4462 4531 context_used ""
4584 4634 context_used ""
5410 5455 context_used ""
5456 5497 context_used ""
5498 5528 context_used ""
6951 7073 context_used ""
7229 7327 context_used ""
7481 7594 context_used ""
0 0 VernacProof "tac:no using:no"
7892 7896 proof_build_time "0.001"
0 0 test_app1 "0.001"
7892 7896 context_used ""
7892 7896 proof_check_time "0.001"
0 0 VernacProof "tac:no using:no"
7971 7975 proof_build_time "0.001"
0 0 test_app2 "0.001"
7971 7975 context_used ""
7971 7975 proof_check_time "0.001"
0 0 VernacProof "tac:no using:no"
8054 8058 proof_build_time "0.001"
0 0 test_app3 "0.001"
8054 8058 context_used ""
8054 8058 proof_check_time "0.000"
8493 8598 context_used ""
8600 8691 context_used ""
0 0 VernacProof "tac:no using:no"
8762 8766 proof_build_time "0.000"
0 0 test_hd1 "0.000"
8762 8766 context_used ""
8762 8766 proof_check_time "0.000"
0 0 VernacProof "tac:no using:no"
8831 8835 proof_build_time "0.000"
0 0 test_hd2 "0.000"
8831 8835 context_used ""
8831 8835 proof_check_time "0.000"
0 0 VernacProof "tac:no using:no"
8907 8911 proof_build_time "0.000"
0 0 test_tl "0.000"
8907 8911 context_used ""
8907 8911 proof_check_time "0.000"
9242 9384 context_used ""
0 0 VernacProof "tac:no using:no"
9467 9471 proof_build_time "0.001"
0 0 test_nonzeros "0.001"
9467 9471 context_used ""
9467 9471 proof_check_time "0.000"
9473 9666 context_used ""
0 0 VernacProof "tac:no using:no"
9751 9755 proof_build_time "0.001"
0 0 test_oddmembers "0.001"
9751 9755 context_used ""
9751 9755 proof_check_time "0.001"
9757 9829 context_used ""
0 0 VernacProof "tac:no using:no"
9919 9923 proof_build_time "0.000"
0 0 test_countoddmembers1 "0.000"
9919 9923 context_used ""
9919 9923 proof_check_time "0.000"
0 0 VernacProof "tac:no using:no"
10007 10011 proof_build_time "0.000"
0 0 test_countoddmembers2 "0.000"
10007 10011 context_used ""
10007 10011 proof_check_time "0.000"
0 0 VernacProof "tac:no using:no"
10091 10095 proof_build_time "0.000"
0 0 test_countoddmembers3 "0.000"
10091 10095 context_used ""
10091 10095 proof_check_time "0.000"
10800 10966 context_used ""
0 0 VernacProof "tac:no using:no"
11058 11062 proof_build_time "0.001"
0 0 test_alternate1 "0.001"
11058 11062 context_used ""
11058 11062 proof_check_time "0.001"
0 0 VernacProof "tac:no using:no"
11146 11150 proof_build_time "0.000"
0 0 test_alternate2 "0.000"
11146 11150 context_used ""
11146 11150 proof_check_time "0.001"
0 0 VernacProof "tac:no using:no"
11234 11238 proof_build_time "0.000"
0 0 test_alternate3 "0.000"
11234 11238 context_used ""
11234 11238 proof_check_time "0.000"
0 0 VernacProof "tac:no using:no"
11319 11323 proof_build_time "0.001"
0 0 test_alternate4 "0.001"
11319 11323 context_used ""
11319 11323 proof_check_time "0.001"
11627 11653 context_used ""
11835 12012 context_used ""
0 0 VernacProof "tac:no using:no"
12155 12159 proof_build_time "0.000"
0 0 test_count1 "0.000"
12155 12159 context_used ""
12155 12159 proof_check_time "0.000"
0 0 VernacProof "tac:no using:no"
12241 12245 proof_build_time "0.000"
0 0 test_count2 "0.000"
12241 12245 context_used ""
12241 12245 proof_check_time "0.000"
12996 13040 context_used ""
0 0 VernacProof "tac:no using:no"
13129 13133 proof_build_time "0.001"
0 0 test_sum1 "0.001"
13129 13133 context_used ""
13129 13133 proof_check_time "0.000"
13135 13182 context_used ""
0 0 VernacProof "tac:no using:no"
13267 13271 proof_build_time "0.000"
0 0 test_add1 "0.000"
13267 13271 context_used ""
13267 13271 proof_check_time "0.000"
0 0 VernacProof "tac:no using:no"
13355 13359 proof_build_time "0.000"
0 0 test_add2 "0.000"
13355 13359 context_used ""
13355 13359 proof_check_time "0.000"
13361 13424 context_used ""
0 0 VernacProof "tac:no using:no"
13505 13509 proof_build_time "0.000"
0 0 test_member1 "0.000"
13505 13509 context_used ""
13505 13509 proof_check_time "0.000"
0 0 VernacProof "tac:no using:no"
13591 13595 proof_build_time "0.000"
0 0 test_member2 "0.000"
13591 13595 context_used ""
13591 13595 proof_check_time "0.000"
14026 14212 context_used ""
0 0 VernacProof "tac:no using:no"
14302 14306 proof_build_time "0.000"
0 0 test_remove_one1 "0.000"
14302 14306 context_used ""
14302 14306 proof_check_time "0.000"
0 0 VernacProof "tac:no using:no"
14394 14398 proof_build_time "0.000"
0 0 test_remove_one2 "0.000"
14394 14398 context_used ""
14394 14398 proof_check_time "0.000"
0 0 VernacProof "tac:no using:no"
14490 14494 proof_build_time "0.001"
0 0 test_remove_one3 "0.001"
14490 14494 context_used ""
14490 14494 proof_check_time "0.000"
0 0 VernacProof "tac:no using:no"
14588 14592 proof_build_time "0.000"
0 0 test_remove_one4 "0.000"
14588 14592 context_used ""
14588 14592 proof_check_time "0.000"
14594 14793 context_used ""
0 0 VernacProof "tac:no using:no"
14882 14886 proof_build_time "0.000"
0 0 test_remove_all1 "0.000"
14882 14886 context_used ""
14882 14886 proof_check_time "0.000"
0 0 VernacProof "tac:no using:no"
14972 14976 proof_build_time "0.000"
0 0 test_remove_all2 "0.000"
14972 14976 context_used ""
14972 14976 proof_check_time "0.000"
0 0 VernacProof "tac:no using:no"
15066 15070 proof_build_time "0.001"
0 0 test_remove_all3 "0.001"
15066 15070 context_used ""
15066 15070 proof_check_time "0.000"
0 0 VernacProof "tac:no using:no"
15175 15179 proof_build_time "0.003"
0 0 test_remove_all4 "0.003"
15175 15179 context_used ""
15175 15179 proof_check_time "0.001"
15181 15422 context_used ""
0 0 VernacProof "tac:no using:no"
15517 15521 proof_build_time "0.001"
0 0 test_subset1 "0.001"
15517 15521 context_used ""
15517 15521 proof_check_time "0.000"
0 0 VernacProof "tac:no using:no"
15618 15622 proof_build_time "0.002"
0 0 test_subset2 "0.002"
15618 15622 context_used ""
15618 15622 proof_check_time "0.001"
0 0 VernacProof "tac:no using:no"
16345 16349 proof_build_time "0.003"
0 0 count_add_is_add_count "0.003"
16345 16349 context_used ""
16345 16349 proof_check_time "0.001"
16391 16461 context_used ""
0 0 VernacProof "tac:no using:no"
17078 17082 proof_build_time "0.000"
0 0 nil_app "0.000"
17078 17082 context_used ""
17078 17082 proof_check_time "0.000"
0 0 VernacProof "tac:no using:no"
17647 17651 proof_build_time "0.001"
0 0 tl_length_pred "0.001"
17647 17651 context_used ""
17647 17651 proof_check_time "0.000"
0 0 VernacProof "tac:no using:no"
20333 20337 proof_build_time "0.002"
0 0 app_assoc "0.002"
20333 20337 context_used ""
20333 20337 proof_check_time "0.001"
22126 22230 context_used ""
0 0 VernacProof "tac:no using:no"
22306 22310 proof_build_time "0.000"
0 0 test_rev1 "0.000"
22306 22310 context_used ""
22306 22310 proof_check_time "0.000"
0 0 VernacProof "tac:no using:no"
22377 22381 proof_build_time "0.000"
0 0 test_rev2 "0.000"
22377 22381 context_used ""
22377 22381 proof_check_time "0.000"
0 0 VernacProof "tac:no using:no"
23318 23324 proof_build_time "0.002"
23318 23324 proof_check_time "0.000"
0 0 VernacProof "tac:no using:no"
23747 23751 proof_build_time "0.002"
0 0 app_length "0.002"
23747 23751 context_used ""
23747 23751 proof_check_time "0.001"
0 0 VernacProof "tac:no using:no"
24408 24412 proof_build_time "0.004"
0 0 rev_length "0.004"
24408 24412 context_used ""
24408 24412 proof_check_time "0.001"
0 0 VernacProof "tac:no using:no"
28233 28237 proof_build_time "0.001"
0 0 app_nil_r "0.001"
28233 28237 context_used ""
28233 28237 proof_check_time "0.000"
0 0 VernacProof "tac:no using:no"
28484 28488 proof_build_time "0.002"
0 0 rev_app_distr "0.002"
28484 28488 context_used ""
28484 28488 proof_check_time "0.000"
0 0 VernacProof "tac:no using:no"
28696 28700 proof_build_time "0.003"
0 0 rev_involutive "0.003"
28696 28700 context_used ""
28696 28700 proof_check_time "0.000"
0 0 VernacProof "tac:no using:no"
29044 29048 proof_build_time "0.001"
0 0 app_assoc4 "0.001"
29044 29048 context_used ""
29044 29048 proof_check_time "0.000"
0 0 VernacProof "tac:no using:no"
29391 29395 proof_build_time "0.003"
0 0 nonzeros_app "0.003"
29391 29395 context_used ""
29391 29395 proof_check_time "0.001"
29616 29813 context_used ""
0 0 VernacProof "tac:no using:no"
29887 29891 proof_build_time "0.000"
0 0 test_eqblist1 "0.000"
29887 29891 context_used ""
29887 29891 proof_check_time "0.000"
0 0 VernacProof "tac:no using:no"
29971 29975 proof_build_time "0.000"
0 0 test_eqblist2 "0.000"
29971 29975 context_used ""
29971 29975 proof_check_time "0.000"
0 0 VernacProof "tac:no using:no"
30056 30060 proof_build_time "0.000"
0 0 test_eqblist3 "0.000"
30056 30060 context_used ""
30056 30060 proof_check_time "0.000"
0 0 VernacProof "tac:no using:no"
30265 30269 proof_build_time "0.002"
0 0 eqblist_refl "0.002"
30265 30269 context_used ""
30265 30269 proof_check_time "0.000"
0 0 VernacProof "tac:no using:no"
30667 30671 proof_build_time "0.000"
0 0 count_member_nonzero "0.000"
30667 30671 context_used ""
30667 30671 proof_check_time "0.000"
0 0 VernacProof "tac:no using:no"
30951 30955 proof_build_time "0.001"
0 0 leb_n_Sn "0.001"
30951 30955 context_used ""
30951 30955 proof_check_time "0.000"
0 0 VernacProof "tac:no using:no"
31435 31439 proof_build_time "0.003"
0 0 remove_does_not_increase_count "0.003"
31435 31439 context_used ""
31435 31439 proof_check_time "0.001"
0 0 VernacProof "tac:no using:no"
32038 32042 proof_build_time "0.003"
0 0 bag_count_sum "0.003"
32038 32042 context_used ""
32038 32042 proof_check_time "0.001"
0 0 VernacProof "tac:no using:no"
32583 32587 proof_build_time "0.003"
0 0 rev_injectivity "0.003"
32583 32587 context_used ""
32583 32587 proof_check_time "0.000"
32629 32701 context_used ""
33027 33251 context_used ""
33568 33626 context_used ""
33568 33626 context_used ""
33568 33626 context_used ""
33910 34133 context_used ""
0 0 VernacProof "tac:no using:no"
34213 34217 proof_build_time "0.000"
0 0 test_nth_error1 "0.000"
34213 34217 context_used ""
34213 34217 proof_check_time "0.000"
0 0 VernacProof "tac:no using:no"
34296 34300 proof_build_time "0.000"
0 0 test_nth_error2 "0.000"
34296 34300 context_used ""
34296 34300 proof_check_time "0.000"
0 0 VernacProof "tac:no using:no"
34377 34381 proof_build_time "0.000"
0 0 test_nth_error3 "0.000"
34377 34381 context_used ""
34377 34381 proof_check_time "0.000"
34654 34826 context_used ""
35376 35487 context_used ""
35672 35781 context_used ""
0 0 VernacProof "tac:no using:no"
35848 35852 proof_build_time "0.000"
0 0 test_hd_error1 "0.000"
35848 35852 context_used ""
35848 35852 proof_check_time "0.000"
0 0 VernacProof "tac:no using:no"
35922 35926 proof_build_time "0.000"
0 0 test_hd_error2 "0.000"
35922 35926 context_used ""
35922 35926 proof_check_time "0.000"
0 0 VernacProof "tac:no using:no"
35998 36002 proof_build_time "0.000"
0 0 test_hd_error3 "0.000"
35998 36002 context_used ""
35998 36002 proof_check_time "0.000"
0 0 VernacProof "tac:no using:no"
36344 36348 proof_build_time "0.001"
0 0 option_elim_hd "0.001"
36344 36348 context_used ""
36344 36348 proof_check_time "0.000"
36792 36832 context_used ""
36792 36832 context_used ""
36792 36832 context_used ""
37117 37206 context_used ""
0 0 VernacProof "tac:no using:no"
37400 37404 proof_build_time "0.001"
0 0 eqb_id_refl "0.001"
37400 37404 context_used ""
37400 37404 proof_check_time "0.000"
37502 37592 context_used ""
37502 37592 context_used ""
37502 37592 context_used ""
38122 38253 context_used ""
38538 38745 context_used ""
0 0 VernacProof "tac:no using:no"
38988 38992 proof_build_time "0.001"
0 0 update_eq "0.001"
38988 38992 context_used ""
38988 38992 proof_check_time "0.000"
0 0 VernacProof "tac:no using:no"
39261 39265 proof_build_time "0.001"
0 0 update_neq "0.001"
39261 39265 context_used ""
39261 39265 proof_check_time "0.000"
39401 39474 context_used ""
39401 39474 context_used ""
39401 39474 context_used ""
39994 40065 context_used ""
0 0 vo_compile_time "0.955"
