COQAUX1 4c0d7a759f6b4c2aa532808fb05a9edf /home/joseph/Programming/coq/LF/Logic.v
0 0 VernacProof "tac:no using:no"
1760 1764 proof_build_time "0.001"
0 0 plus_2_2_is_4 "0.001"
1760 1764 context_used ""
1760 1764 proof_check_time "0.000"
1962 2003 context_used ""
0 0 VernacProof "tac:no using:no"
2257 2261 proof_build_time "0.000"
0 0 plus_fact_is_true "0.000"
2257 2261 context_used ""
2257 2261 proof_check_time "0.000"
2547 2595 context_used ""
2855 2935 context_used ""
0 0 VernacProof "tac:no using:no"
3019 3023 proof_build_time "0.001"
0 0 succ_inj "0.001"
3019 3023 context_used ""
3019 3023 proof_check_time "0.000"
0 0 VernacProof "tac:no using:no"
4148 4152 proof_build_time "0.001"
0 0 and_example "0.001"
4148 4152 context_used ""
4148 4152 proof_check_time "0.001"
0 0 VernacProof "tac:no using:no"
4427 4431 proof_build_time "0.001"
0 0 and_intro "0.001"
4427 4431 context_used ""
4427 4431 proof_check_time "0.000"
0 0 VernacProof "tac:no using:no"
4798 4802 proof_build_time "0.001"
0 0 and_example' "0.001"
4798 4802 context_used ""
4798 4802 proof_check_time "0.001"
0 0 VernacProof "tac:no using:no"
5141 5145 proof_build_time "0.005"
0 0 and_exercise "0.005"
5141 5145 context_used ""
5141 5145 proof_check_time "0.001"
0 0 VernacProof "tac:no using:no"
5787 5791 proof_build_time "0.002"
0 0 and_example2 "0.002"
5787 5791 context_used ""
5787 5791 proof_check_time "0.000"
0 0 VernacProof "tac:no using:no"
6057 6061 proof_build_time "0.001"
0 0 and_example2' "0.001"
6057 6061 context_used ""
6057 6061 proof_check_time "0.000"
0 0 VernacProof "tac:no using:no"
6396 6400 proof_build_time "0.001"
0 0 and_example2'' "0.001"
6396 6400 context_used ""
6396 6400 proof_check_time "0.001"
0 0 VernacProof "tac:no using:no"
6903 6907 proof_build_time "0.003"
0 0 and_example3 "0.003"
6903 6907 context_used ""
6903 6907 proof_check_time "0.001"
0 0 VernacProof "tac:no using:no"
7182 7186 proof_build_time "0.001"
0 0 proj1 "0.001"
7182 7186 context_used ""
7182 7186 proof_check_time "0.000"
0 0 VernacProof "tac:no using:no"
7335 7339 proof_build_time "0.001"
0 0 proj2 "0.001"
7335 7339 context_used ""
7335 7339 proof_check_time "0.000"
0 0 VernacProof "tac:no using:no"
7719 7723 proof_build_time "0.001"
0 0 and_commut "0.001"
7719 7723 context_used ""
7719 7723 proof_check_time "0.000"
0 0 VernacProof "tac:no using:no"
8176 8180 proof_build_time "0.002"
0 0 and_assoc "0.002"
8176 8180 context_used ""
8176 8180 proof_check_time "0.000"
0 0 VernacProof "tac:no using:no"
9285 9289 proof_build_time "0.003"
0 0 or_example "0.003"
9285 9289 context_used ""
9285 9289 proof_check_time "0.001"
0 0 VernacProof "tac:no using:no"
9712 9716 proof_build_time "0.001"
0 0 or_intro "0.001"
9712 9716 context_used ""
9712 9716 proof_check_time "0.000"
0 0 VernacProof "tac:no using:no"
9974 9978 proof_build_time "0.002"
0 0 zero_or_succ "0.002"
9974 9978 context_used ""
9974 9978 proof_check_time "0.000"
0 0 VernacProof "tac:no using:no"
10265 10269 proof_build_time "0.004"
0 0 mult_eq_0 "0.004"
10265 10269 context_used ""
10265 10269 proof_check_time "0.001"
0 0 VernacProof "tac:no using:no"
10467 10471 proof_build_time "0.001"
0 0 or_commut "0.001"
10467 10471 context_used ""
10467 10471 proof_check_time "0.000"
11443 11481 context_used ""
0 0 VernacProof "tac:no using:no"
11903 11907 proof_build_time "0.001"
0 0 ex_falso_quodlibet "0.001"
11903 11907 context_used ""
11903 11907 proof_check_time "0.000"
0 0 VernacProof "tac:no using:no"
12395 12399 proof_build_time "0.001"
0 0 not_implies_our_not "0.001"
12395 12399 context_used ""
12395 12399 proof_check_time "0.000"
0 0 VernacProof "tac:no using:no"
13267 13271 proof_build_time "0.001"
0 0 zero_not_one "0.001"
13267 13271 context_used ""
13267 13271 proof_check_time "0.000"
0 0 VernacProof "tac:no using:no"
13703 13707 proof_build_time "0.001"
0 0 not_False "0.001"
13703 13707 context_used ""
13703 13707 proof_check_time "0.000"
0 0 VernacProof "tac:no using:no"
13893 13897 proof_build_time "0.001"
0 0 contradiction_implies_anything "0.001"
13893 13897 context_used ""
13893 13897 proof_check_time "0.000"
0 0 VernacProof "tac:no using:no"
14035 14039 proof_build_time "0.001"
0 0 double_neg "0.001"
14035 14039 context_used ""
14035 14039 proof_check_time "0.000"
14308 14381 context_used ""
0 0 VernacProof "tac:no using:no"
14622 14626 proof_build_time "0.001"
0 0 contrapositive "0.001"
14622 14626 context_used ""
14622 14626 proof_check_time "0.000"
0 0 VernacProof "tac:no using:no"
14839 14843 proof_build_time "0.001"
0 0 not_both_true_and_false "0.001"
14839 14843 context_used ""
14839 14843 proof_check_time "0.000"
15217 15292 context_used ""
0 0 VernacProof "tac:no using:no"
16009 16013 proof_build_time "0.002"
0 0 not_true_is_false "0.002"
16009 16013 context_used ""
16009 16013 proof_check_time "0.000"
0 0 VernacProof "tac:no using:no"
16378 16382 proof_build_time "0.002"
0 0 not_true_is_false' "0.002"
16378 16382 context_used ""
16378 16382 proof_check_time "0.000"
0 0 VernacProof "tac:no using:no"
16687 16691 proof_build_time "0.000"
0 0 True_is_true "0.000"
16687 16691 context_used ""
16687 16691 proof_check_time "0.000"
17373 17425 context_used ""
0 0 VernacProof "tac:no using:no"
17738 17742 proof_build_time "0.001"
0 0 iff_sym "0.001"
17738 17742 context_used ""
17738 17742 proof_check_time "0.000"
0 0 VernacProof "tac:no using:no"
17962 17966 proof_build_time "0.002"
0 0 not_true_iff_false "0.002"
17962 17966 context_used ""
17962 17966 proof_check_time "0.000"
0 0 VernacProof "tac:no using:no"
18285 18289 proof_build_time "0.001"
0 0 iff_refl "0.001"
18285 18289 context_used ""
18285 18289 proof_check_time "0.000"
0 0 VernacProof "tac:no using:no"
18508 18512 proof_build_time "0.002"
0 0 iff_trans "0.002"
18508 18512 context_used ""
18508 18512 proof_check_time "0.000"
0 0 VernacProof "tac:no using:no"
19057 19061 proof_build_time "0.008"
0 0 or_distributes_over_and "0.008"
19057 19061 context_used ""
19057 19061 proof_check_time "0.001"
0 0 VernacProof "tac:no using:no"
19693 19697 proof_build_time "0.001"
0 0 mult_0 "0.001"
19693 19697 context_used ""
19693 19697 proof_check_time "0.000"
0 0 VernacProof "tac:no using:no"
20009 20013 proof_build_time "0.005"
0 0 or_assoc "0.005"
20009 20013 context_used ""
20009 20013 proof_check_time "0.001"
0 0 VernacProof "tac:no using:no"
20377 20381 proof_build_time "0.006"
0 0 mult_0_3 "0.006"
20377 20381 context_used ""
20377 20381 proof_check_time "0.043"
0 0 VernacProof "tac:no using:no"
20672 20676 proof_build_time "0.001"
0 0 apply_iff_example "0.001"
20672 20676 context_used ""
20672 20676 proof_check_time "0.000"
0 0 VernacProof "tac:no using:no"
21608 21612 proof_build_time "0.001"
0 0 four_is_even "0.001"
21608 21612 context_used ""
21608 21612 proof_check_time "0.000"
0 0 VernacProof "tac:no using:no"
22006 22010 proof_build_time "0.001"
0 0 exists_example_2 "0.001"
22006 22010 context_used ""
22006 22010 proof_check_time "0.000"
0 0 VernacProof "tac:no using:no"
22436 22440 proof_build_time "0.001"
0 0 dist_not_exists "0.001"
22436 22440 context_used ""
22436 22440 proof_check_time "0.000"
0 0 VernacProof "tac:no using:no"
22936 22940 proof_build_time "0.003"
0 0 dist_exists_or "0.003"
22936 22940 context_used ""
22936 22940 proof_check_time "0.001"
23792 23917 context_used ""
0 0 VernacProof "tac:no using:no"
24157 24161 proof_build_time "0.001"
0 0 In_example_1 "0.001"
24157 24161 context_used ""
24157 24161 proof_check_time "0.001"
0 0 VernacProof "tac:no using:no"
24387 24391 proof_build_time "0.002"
0 0 In_example_2 "0.002"
24387 24391 context_used ""
24387 24391 proof_check_time "0.001"
0 0 VernacProof "tac:no using:no"
25035 25039 proof_build_time "0.003"
0 0 In_map "0.003"
25035 25039 context_used ""
25035 25039 proof_check_time "0.001"
0 0 VernacProof "tac:no using:no"
26079 26083 proof_build_time "0.006"
0 0 In_map_iff "0.006"
26079 26083 context_used ""
26079 26083 proof_check_time "0.001"
0 0 VernacProof "tac:no using:no"
26838 26842 proof_build_time "0.008"
0 0 In_app_iff "0.008"
26838 26842 context_used ""
26838 26842 proof_check_time "0.001"
27431 27562 context_used ""
0 0 VernacProof "tac:no using:no"
27655 27659 proof_build_time "0.001"
0 0 or_proj "0.001"
27655 27659 context_used ""
27655 27659 proof_check_time "0.000"
0 0 VernacProof "tac:no using:no"
28266 28270 proof_build_time "0.006"
0 0 All_In "0.006"
28266 28270 context_used ""
28266 28270 proof_check_time "0.001"
28634 28754 context_used ""
0 0 VernacProof "tac:no using:no"
29153 29157 proof_build_time "0.002"
0 0 combine_odd_even_intro "0.002"
29153 29157 context_used ""
29153 29157 proof_check_time "0.000"
0 0 VernacProof "tac:no using:no"
29416 29420 proof_build_time "0.001"
0 0 combine_odd_even_elim_odd "0.001"
29416 29420 context_used ""
29416 29420 proof_check_time "0.000"
0 0 VernacProof "tac:no using:no"
29690 29694 proof_build_time "0.001"
0 0 combine_odd_even_elim_even "0.001"
29690 29694 context_used ""
29690 29694 proof_check_time "0.000"
0 0 VernacProof "tac:no using:no"
32219 32225 proof_build_time "0.001"
32219 32225 proof_check_time "0.000"
0 0 VernacProof "tac:no using:no"
32650 32654 proof_build_time "0.002"
0 0 plus_comm3_take2 "0.002"
32650 32654 context_used ""
32650 32654 proof_check_time "0.000"
0 0 VernacProof "tac:no using:no"
33011 33015 proof_build_time "0.001"
0 0 plus_comm3_take3 "0.001"
33011 33015 context_used ""
33011 33015 proof_check_time "0.000"
0 0 VernacProof "tac:no using:no"
33368 33372 proof_build_time "0.002"
0 0 in_not_nil "0.002"
33368 33372 context_used ""
33368 33372 proof_check_time "0.000"
0 0 VernacProof "tac:no using:no"
33858 33864 proof_build_time "0.000"
33858 33864 proof_check_time "0.000"
0 0 VernacProof "tac:no using:no"
34031 34035 proof_build_time "0.001"
0 0 in_not_nil_42_take2 "0.001"
34031 34035 context_used ""
34031 34035 proof_check_time "0.001"
0 0 VernacProof "tac:no using:no"
34190 34194 proof_build_time "0.001"
0 0 in_not_nil_42_take3 "0.001"
34190 34194 context_used ""
34190 34194 proof_check_time "0.001"
0 0 VernacProof "tac:no using:no"
34383 34387 proof_build_time "0.001"
0 0 in_not_nil_42_take4 "0.001"
34383 34387 context_used ""
34383 34387 proof_check_time "0.001"
0 0 VernacProof "tac:no using:no"
34561 34565 proof_build_time "0.001"
0 0 in_not_nil_42_take5 "0.001"
34561 34565 context_used ""
34561 34565 proof_check_time "0.001"
0 0 VernacProof "tac:no using:no"
35399 35403 proof_build_time "0.002"
0 0 lemma_application_ex "0.002"
35399 35403 context_used ""
35399 35403 proof_check_time "0.001"
0 0 VernacProof "tac:no using:no"
37330 37334 proof_build_time "0.000"
0 0 function_equality_ex1 "0.000"
37330 37334 context_used ""
37330 37334 proof_check_time "0.000"
0 0 VernacProof "tac:no using:no"
38126 38132 proof_build_time "0.000"
38126 38132 proof_check_time "0.000"
38233 38375 context_used ""
0 0 VernacProof "tac:no using:no"
38804 38808 proof_build_time "0.001"
0 0 function_equality_ex2 "0.001"
38804 38808 context_used ""
38804 38808 proof_check_time "0.000"
40079 40208 context_used ""
40210 40275 context_used ""
0 0 VernacProof "tac:no using:no"
41047 41051 proof_build_time "0.007"
0 0 rev_append_contra "0.007"
41047 41051 context_used ""
41047 41051 proof_check_time "0.001"
0 0 VernacProof "tac:no using:no"
41301 41305 proof_build_time "0.003"
0 0 tr_rev_correct "0.003"
41301 41305 context_used ""
41301 41305 proof_check_time "0.001"
0 0 VernacProof "tac:no using:no"
41775 41779 proof_build_time "0.000"
0 0 even_42_bool "0.000"
41775 41779 context_used ""
41775 41779 proof_check_time "0.000"
0 0 VernacProof "tac:no using:no"
41927 41931 proof_build_time "0.001"
0 0 even_42_prop "0.001"
41927 41931 context_used ""
41927 41931 proof_check_time "0.001"
0 0 VernacProof "tac:no using:no"
42307 42311 proof_build_time "0.001"
0 0 evenb_double "0.001"
42307 42311 context_used ""
42307 42311 proof_check_time "0.000"
0 0 VernacProof "tac:no using:no"
42766 42770 proof_build_time "0.005"
0 0 evenb_double_conv "0.005"
42766 42770 context_used ""
42766 42770 proof_check_time "0.001"
0 0 VernacProof "tac:no using:no"
43045 43049 proof_build_time "0.014"
0 0 even_bool_prop "0.014"
43045 43049 context_used ""
43045 43049 proof_check_time "0.001"
0 0 VernacProof "tac:no using:no"
43592 43596 proof_build_time "0.002"
0 0 eqb_eq "0.002"
43592 43596 context_used ""
43592 43596 proof_check_time "0.000"
0 0 VernacProof "tac:no using:no"
46263 46267 proof_build_time "0.008"
0 0 even_1000 "0.008"
46263 46267 context_used ""
46263 46267 proof_check_time "0.010"
0 0 VernacProof "tac:no using:no"
46426 46430 proof_build_time "0.001"
0 0 even_1000' "0.001"
46426 46430 context_used ""
46426 46430 proof_check_time "0.003"
0 0 VernacProof "tac:no using:no"
46709 46713 proof_build_time "0.004"
0 0 even_1000'' "0.004"
46709 46713 context_used ""
46709 46713 proof_check_time "0.006"
0 0 VernacProof "tac:no using:no"
47318 47322 proof_build_time "0.001"
0 0 not_even_1001 "0.001"
47318 47322 context_used ""
47318 47322 proof_check_time "0.003"
0 0 VernacProof "tac:no using:no"
47571 47575 proof_build_time "0.036"
0 0 not_even_1001' "0.036"
47571 47575 context_used ""
47571 47575 proof_check_time "0.026"
0 0 VernacProof "tac:no using:no"
48055 48059 proof_build_time "0.002"
0 0 plus_eqb_example "0.002"
48055 48059 context_used ""
48055 48059 proof_check_time "0.000"
0 0 VernacProof "tac:no using:no"
48878 48882 proof_build_time "0.004"
0 0 andb_true_iff "0.004"
48878 48882 context_used ""
48878 48882 proof_check_time "0.001"
0 0 VernacProof "tac:no using:no"
49228 49232 proof_build_time "0.003"
0 0 orb_true_iff "0.003"
49228 49232 context_used ""
49228 49232 proof_check_time "0.001"
0 0 VernacProof "tac:no using:no"
49822 49826 proof_build_time "0.003"
0 0 eqb_neq "0.003"
49822 49826 context_used ""
49822 49826 proof_check_time "0.001"
50226 50470 context_used ""
0 0 VernacProof "tac:no using:no"
51427 51431 proof_build_time "0.013"
0 0 eqb_list_true_iff "0.013"
51427 51431 context_used ""
51427 51431 proof_check_time "0.002"
51619 51772 context_used ""
0 0 VernacProof "tac:no using:no"
52414 52418 proof_build_time "0.006"
0 0 forallb_true_iff "0.006"
52414 52418 context_used ""
52414 52418 proof_check_time "0.001"
53163 53221 context_used ""
0 0 VernacProof "tac:no using:no"
54168 54172 proof_build_time "0.003"
0 0 restricted_excluded_middle "0.003"
54168 54172 context_used ""
54168 54172 proof_check_time "0.000"
0 0 VernacProof "tac:no using:no"
54473 54477 proof_build_time "0.001"
0 0 restricted_excluded_middle_eq "0.001"
54473 54477 context_used ""
54473 54477 proof_check_time "0.000"
0 0 VernacProof "tac:no using:no"
59055 59059 proof_build_time "0.003"
0 0 DeMorgan1 "0.003"
59055 59059 context_used ""
59055 59059 proof_check_time "0.000"
0 0 VernacProof "tac:no using:no"
59286 59290 proof_build_time "0.002"
0 0 DeMorgan2a "0.002"
59286 59290 context_used ""
59286 59290 proof_check_time "0.000"
0 0 VernacProof "tac:no using:no"
59596 59600 proof_build_time "0.002"
0 0 excluded_middle_irrefutable "0.002"
59596 59600 context_used ""
59596 59600 proof_check_time "0.000"
0 0 VernacProof "tac:no using:no"
60319 60323 proof_build_time "0.002"
0 0 double_not "0.002"
60319 60323 context_used ""
60319 60323 proof_check_time "0.000"
0 0 VernacProof "tac:no using:no"
60633 60637 proof_build_time "0.002"
0 0 not_exists_dist "0.002"
60633 60637 context_used ""
60633 60637 proof_check_time "0.000"
61210 61266 context_used ""
61268 61336 context_used ""
61338 61413 context_used ""
61415 61480 context_used ""
0 0 VernacProof "tac:no using:no"
61729 61733 proof_build_time "0.002"
0 0 excluded_middle_to_peirce "0.002"
61729 61733 context_used ""
61729 61733 proof_check_time "0.000"
0 0 VernacProof "tac:no using:no"
61968 61972 proof_build_time "0.001"
0 0 peirce_to_double_negation_elimination "0.001"
61968 61972 context_used ""
61968 61972 proof_check_time "0.000"
0 0 VernacProof "tac:no using:no"
62260 62264 proof_build_time "0.002"
0 0 double_negation_elimination_to_de_morgan_no_and_not "0.002"
62260 62264 context_used ""
62260 62264 proof_check_time "0.000"
0 0 VernacProof "tac:no using:no"
62511 62515 proof_build_time "0.001"
0 0 de_morgan_to_or "0.001"
62511 62515 context_used ""
62511 62515 proof_check_time "0.000"
0 0 VernacProof "tac:no using:no"
62692 62696 proof_build_time "0.001"
0 0 implies_to_or_to_excluded_middle "0.001"
62692 62696 context_used ""
62692 62696 proof_check_time "0.000"
0 0 vo_compile_time "1.149"
