COQAUX1 cda5b93d75218f812a61c297dcad1937 /home/joseph/Programming/coq/LF/Poly.v
1160 1242 context_used ""
1160 1242 context_used ""
1160 1242 context_used ""
1704 1776 context_used ""
1704 1776 context_used ""
1704 1776 context_used ""
5059 5205 context_used ""
0 0 VernacProof "tac:no using:no"
5462 5466 proof_build_time "0.001"
0 0 test_repeat1 "0.001"
5462 5466 context_used ""
5462 5466 proof_check_time "0.000"
0 0 VernacProof "tac:no using:no"
5684 5688 proof_build_time "0.000"
0 0 test_repeat2 "0.000"
5684 5688 context_used ""
5684 5688 proof_check_time "0.000"
5833 5901 context_used ""
5833 5901 context_used ""
5833 5901 context_used ""
5903 5973 context_used ""
5903 5973 context_used ""
5903 5973 context_used ""
6343 6416 context_used ""
6693 6825 context_used ""
9472 9606 context_used ""
9905 9976 context_used ""
10021 10085 context_used ""
10823 10876 context_used ""
11053 11206 context_used ""
11779 11853 context_used ""
11779 11853 context_used ""
11779 11853 context_used ""
12278 12421 context_used ""
12423 12550 context_used ""
12552 12666 context_used ""
0 0 VernacProof "tac:no using:no"
12762 12766 proof_build_time "0.000"
0 0 test_rev1 "0.000"
12762 12766 context_used ""
12762 12766 proof_check_time "0.000"
0 0 VernacProof "tac:no using:no"
12847 12851 proof_build_time "0.000"
0 0 test_rev2 "0.000"
12847 12851 context_used ""
12847 12851 proof_check_time "0.000"
0 0 VernacProof "tac:no using:no"
12939 12943 proof_build_time "0.000"
0 0 test_length1 "0.000"
12939 12943 context_used ""
12939 12943 proof_check_time "0.000"
13955 13990 context_used ""
14123 14153 context_used ""
14726 14761 context_used ""
0 0 VernacProof "tac:no using:no"
15244 15248 proof_build_time "0.003"
0 0 app_nil_r "0.003"
15244 15248 context_used ""
15244 15248 proof_check_time "0.001"
0 0 VernacProof "tac:no using:no"
15437 15441 proof_build_time "0.003"
0 0 app_assoc "0.003"
15437 15441 context_used ""
15437 15441 proof_check_time "0.001"
0 0 VernacProof "tac:no using:no"
15653 15657 proof_build_time "0.002"
0 0 app_length "0.002"
15653 15657 context_used ""
15653 15657 proof_check_time "0.001"
0 0 VernacProof "tac:no using:no"
16047 16051 proof_build_time "0.006"
0 0 rev_app_distr "0.006"
16047 16051 context_used ""
16047 16051 proof_check_time "0.001"
0 0 VernacProof "tac:no using:no"
16266 16270 proof_build_time "0.003"
0 0 rev_involutive "0.003"
16266 16270 context_used ""
16266 16270 proof_check_time "0.001"
16565 16626 context_used ""
16565 16626 context_used ""
16565 16626 context_used ""
17518 17602 context_used ""
17604 17688 context_used ""
17913 18106 context_used ""
18959 19163 context_used ""
0 0 VernacProof "tac:no using:no"
19260 19264 proof_build_time "0.001"
0 0 test_split "0.001"
19260 19264 context_used ""
19260 19264 proof_check_time "0.001"
0 0 VernacProof "tac:no using:no"
19664 19668 proof_build_time "0.012"
0 0 split_right_inverse "0.012"
19664 19668 context_used ""
19664 19668 proof_check_time "0.004"
0 0 VernacProof "tac:no using:no"
20022 20026 proof_build_time "0.010"
0 0 split_right_inverse' "0.010"
20022 20026 context_used ""
20022 20026 proof_check_time "0.003"
20445 20507 context_used ""
20445 20507 context_used ""
20445 20507 context_used ""
20672 20858 context_used ""
0 0 VernacProof "tac:no using:no"
20938 20942 proof_build_time "0.000"
0 0 test_nth_error1 "0.000"
20938 20942 context_used ""
20938 20942 proof_check_time "0.000"
0 0 VernacProof "tac:no using:no"
21023 21027 proof_build_time "0.000"
0 0 test_nth_error2 "0.000"
21023 21027 context_used ""
21023 21027 proof_check_time "0.000"
0 0 VernacProof "tac:no using:no"
21101 21105 proof_build_time "0.000"
0 0 test_nth_error3 "0.000"
21101 21105 context_used ""
21101 21105 proof_check_time "0.000"
21332 21448 context_used ""
0 0 VernacProof "tac:no using:no"
21658 21662 proof_build_time "0.001"
0 0 test_hd_error1 "0.001"
21658 21662 context_used ""
21658 21662 proof_check_time "0.000"
0 0 VernacProof "tac:no using:no"
21741 21745 proof_build_time "0.001"
0 0 test_hd_error2 "0.001"
21741 21745 context_used ""
21741 21745 proof_check_time "0.001"
22395 22462 context_used ""
0 0 VernacProof "tac:no using:no"
22763 22767 proof_build_time "0.001"
0 0 test_doit3times "0.001"
22763 22767 context_used ""
22763 22767 proof_check_time "0.000"
0 0 VernacProof "tac:no using:no"
22846 22850 proof_build_time "0.000"
0 0 test_doit3times' "0.000"
22846 22850 context_used ""
22846 22850 proof_check_time "0.000"
23204 23423 context_used ""
0 0 VernacProof "tac:no using:no"
23661 23665 proof_build_time "0.000"
0 0 test_filter1 "0.000"
23661 23665 context_used ""
23661 23665 proof_check_time "0.000"
23667 23742 context_used ""
0 0 VernacProof "tac:no using:no"
23883 23887 proof_build_time "0.001"
0 0 test_filter2 "0.001"
23883 23887 context_used ""
23883 23887 proof_check_time "0.001"
24007 24082 context_used ""
0 0 VernacProof "tac:no using:no"
24175 24179 proof_build_time "0.000"
0 0 test_countoddmembers'1 "0.000"
24175 24179 context_used ""
24175 24179 proof_check_time "0.000"
0 0 VernacProof "tac:no using:no"
24265 24269 proof_build_time "0.000"
0 0 test_countoddmembers'2 "0.000"
24265 24269 context_used ""
24265 24269 proof_check_time "0.000"
0 0 VernacProof "tac:no using:no"
24351 24355 proof_build_time "0.000"
0 0 test_countoddmembers'3 "0.000"
24351 24355 context_used ""
24351 24355 proof_check_time "0.000"
0 0 VernacProof "tac:no using:no"
25181 25185 proof_build_time "0.001"
0 0 test_anon_fun' "0.001"
25181 25185 context_used ""
25181 25185 proof_check_time "0.002"
0 0 VernacProof "tac:no using:no"
25542 25546 proof_build_time "0.000"
0 0 test_filter2' "0.000"
25542 25546 context_used ""
25542 25546 proof_check_time "0.001"
25818 25922 context_used ""
0 0 VernacProof "tac:no using:no"
26029 26033 proof_build_time "0.001"
0 0 test_filter_even_gt7_1 "0.001"
26029 26033 context_used ""
26029 26033 proof_check_time "0.001"
0 0 VernacProof "tac:no using:no"
26127 26131 proof_build_time "0.000"
0 0 test_filter_even_gt7_2 "0.000"
26127 26131 context_used ""
26127 26131 proof_check_time "0.001"
26761 26846 context_used ""
26848 27042 context_used ""
0 0 VernacProof "tac:no using:no"
27137 27141 proof_build_time "0.000"
0 0 test_partition1 "0.000"
27137 27141 context_used ""
27137 27141 proof_check_time "0.001"
0 0 VernacProof "tac:no using:no"
27239 27243 proof_build_time "0.000"
0 0 test_partition2 "0.000"
27239 27243 context_used ""
27239 27243 proof_check_time "0.000"
27403 27533 context_used ""
0 0 VernacProof "tac:no using:no"
27817 27821 proof_build_time "0.000"
0 0 test_map1 "0.000"
27817 27821 context_used ""
27817 27821 proof_check_time "0.000"
0 0 VernacProof "tac:no using:no"
28167 28171 proof_build_time "0.000"
0 0 test_map2 "0.000"
28167 28171 context_used ""
28167 28171 proof_check_time "0.000"
0 0 VernacProof "tac:no using:no"
28469 28473 proof_build_time "0.000"
0 0 test_map3 "0.000"
28469 28473 context_used ""
28469 28473 proof_check_time "0.001"
0 0 VernacProof "tac:no using:no"
28942 28946 proof_build_time "0.002"
0 0 map_app "0.002"
28942 28946 context_used ""
28942 28946 proof_check_time "0.001"
0 0 VernacProof "tac:no using:no"
29184 29188 proof_build_time "0.002"
0 0 map_rev "0.002"
29184 29188 context_used ""
29184 29188 proof_check_time "0.001"
29663 29825 context_used ""
0 0 VernacProof "tac:no using:no"
29942 29946 proof_build_time "0.000"
0 0 test_flat_map1 "0.000"
29942 29946 context_used ""
29942 29946 proof_check_time "0.001"
30076 30244 context_used ""
31081 31236 context_used ""
31238 31370 context_used ""
0 0 VernacProof "tac:no using:no"
31972 31976 proof_build_time "0.000"
0 0 fold_example1 "0.000"
31972 31976 context_used ""
31972 31976 proof_check_time "0.000"
0 0 VernacProof "tac:no using:no"
32071 32075 proof_build_time "0.000"
0 0 fold_example2 "0.000"
32071 32075 context_used ""
32071 32075 proof_check_time "0.000"
0 0 VernacProof "tac:no using:no"
32168 32172 proof_build_time "0.000"
0 0 fold_example3 "0.000"
32168 32172 context_used ""
32168 32172 proof_check_time "0.000"
32662 32741 context_used ""
33278 33346 context_used ""
33348 33382 context_used ""
33384 33442 context_used ""
0 0 VernacProof "tac:no using:no"
33546 33550 proof_build_time "0.000"
0 0 constfun_example1 "0.000"
33546 33550 context_used ""
33546 33550 proof_check_time "0.000"
0 0 VernacProof "tac:no using:no"
33621 33625 proof_build_time "0.000"
0 0 constfun_example2 "0.000"
33621 33625 context_used ""
33621 33625 proof_check_time "0.000"
34402 34429 context_used ""
0 0 VernacProof "tac:no using:no"
34502 34506 proof_build_time "0.000"
0 0 test_plus3 "0.000"
34502 34506 context_used ""
34502 34506 proof_check_time "0.000"
0 0 VernacProof "tac:no using:no"
34576 34580 proof_build_time "0.000"
0 0 test_plus3' "0.000"
34576 34580 context_used ""
34576 34580 proof_check_time "0.000"
0 0 VernacProof "tac:no using:no"
34653 34657 proof_build_time "0.000"
0 0 test_plus3'' "0.000"
34653 34657 context_used ""
34653 34657 proof_check_time "0.000"
34978 35062 context_used ""
0 0 VernacProof "tac:no using:no"
35137 35141 proof_build_time "0.000"
0 0 test_fold_length1 "0.000"
35137 35141 context_used ""
35137 35141 proof_check_time "0.000"
0 0 VernacProof "tac:no using:no"
35655 35659 proof_build_time "0.001"
0 0 fold_length_correct "0.001"
35655 35659 context_used ""
35655 35659 proof_check_time "0.000"
35805 35914 context_used ""
0 0 VernacProof "tac:no using:no"
36337 36341 proof_build_time "0.002"
0 0 fold_map_correct "0.002"
36337 36341 context_used ""
36337 36341 proof_check_time "0.001"
36383 36450 context_used ""
37251 37339 context_used ""
37471 37567 context_used ""
0 0 VernacProof "tac:no using:no"
37772 37776 proof_build_time "0.000"
0 0 test_map1' "0.000"
37772 37776 context_used ""
37772 37776 proof_check_time "0.000"
0 0 VernacProof "tac:no using:no"
38158 38162 proof_build_time "0.001"
0 0 uncurry_curry "0.001"
38158 38162 context_used ""
38158 38162 proof_check_time "0.000"
0 0 VernacProof "tac:no using:no"
38380 38384 proof_build_time "0.001"
0 0 curry_uncurry "0.001"
38380 38384 context_used ""
38380 38384 proof_check_time "0.000"
0 0 VernacProof "tac:no using:no"
39526 39535 proof_build_time "0.004"
0 0 the_formal_version "0.004"
39526 39535 proof_check_time "0.000"
39578 39651 context_used ""
39992 40047 context_used ""
40202 40272 context_used ""
40339 40413 context_used ""
40579 40648 context_used ""
40910 40949 context_used ""
41318 41408 context_used ""
0 0 VernacProof "tac:no using:no"
41475 41479 proof_build_time "0.000"
0 0 succ_1 "0.000"
41475 41479 context_used ""
41475 41479 proof_check_time "0.000"
0 0 VernacProof "tac:no using:no"
41638 41642 proof_build_time "0.000"
0 0 succ_2 "0.000"
41638 41642 context_used ""
41638 41642 proof_check_time "0.000"
0 0 VernacProof "tac:no using:no"
41706 41710 proof_build_time "0.000"
0 0 succ_3 "0.000"
41706 41710 context_used ""
41706 41710 proof_check_time "0.000"
41818 41916 context_used ""
0 0 VernacProof "tac:no using:no"
41976 41980 proof_build_time "0.000"
0 0 plus_1 "0.000"
41976 41980 context_used ""
41976 41980 proof_check_time "0.000"
0 0 VernacProof "tac:no using:no"
42052 42056 proof_build_time "0.000"
0 0 plus_2 "0.000"
42052 42056 context_used ""
42052 42056 proof_check_time "0.000"
0 0 VernacProof "tac:no using:no"
42154 42158 proof_build_time "0.000"
0 0 plus_3 "0.000"
42154 42158 context_used ""
42154 42158 proof_check_time "0.000"
42250 42344 context_used ""
0 0 VernacProof "tac:no using:no"
42403 42407 proof_build_time "0.000"
0 0 mult_1 "0.000"
42403 42407 context_used ""
42403 42407 proof_check_time "0.000"
0 0 VernacProof "tac:no using:no"
42483 42487 proof_build_time "0.000"
0 0 mult_2 "0.000"
42483 42487 context_used ""
42483 42487 proof_check_time "0.000"
0 0 VernacProof "tac:no using:no"
42561 42565 proof_build_time "0.000"
0 0 mult_3 "0.000"
42561 42565 context_used ""
42561 42565 proof_check_time "0.000"
42985 43098 context_used ""
0 0 VernacProof "tac:no using:no"
43201 43205 proof_build_time "0.000"
0 0 exp_1 "0.000"
43201 43205 context_used ""
43201 43205 proof_check_time "0.000"
0 0 VernacProof "tac:no using:no"
43272 43276 proof_build_time "0.000"
0 0 exp_2 "0.000"
43272 43276 context_used ""
43272 43276 proof_check_time "0.000"
0 0 VernacProof "tac:no using:no"
43366 43370 proof_build_time "0.000"
0 0 exp_3 "0.000"
43366 43370 context_used ""
43366 43370 proof_check_time "0.000"
0 0 VernacProof "tac:no using:no"
43484 43488 proof_build_time "0.000"
0 0 exp_4 "0.000"
43484 43488 context_used ""
43484 43488 proof_check_time "0.000"
0 0 vo_compile_time "0.611"
