COQAUX1 c9e3ef095ef32ece160f5a33d39547e9 /home/joseph/Programming/coq/LF/Tactics.v
0 0 VernacProof "tac:no using:no"
1302 1306 proof_build_time "0.001"
0 0 silly1 "0.001"
1302 1306 context_used ""
1302 1306 proof_check_time "0.001"
0 0 VernacProof "tac:no using:no"
1735 1739 proof_build_time "0.001"
0 0 silly2 "0.001"
1735 1739 context_used ""
1735 1739 proof_check_time "0.000"
0 0 VernacProof "tac:no using:no"
2365 2369 proof_build_time "0.001"
0 0 silly2a "0.001"
2365 2369 context_used ""
2365 2369 proof_check_time "0.001"
0 0 VernacProof "tac:no using:no"
2646 2650 proof_build_time "0.000"
0 0 silly_ex "0.000"
2646 2650 context_used ""
2646 2650 proof_check_time "0.000"
0 0 VernacProof "tac:no using:no"
3295 3299 proof_build_time "0.001"
0 0 silly3_firsttry "0.001"
3295 3299 context_used ""
3295 3299 proof_check_time "0.000"
0 0 VernacProof "tac:no using:no"
3690 3694 proof_build_time "0.001"
0 0 rev_exercise1 "0.001"
3690 3694 context_used ""
3690 3694 proof_check_time "0.000"
0 0 VernacProof "tac:no using:no"
4665 4669 proof_build_time "0.001"
0 0 trans_eq_example "0.001"
4665 4669 context_used ""
4665 4669 proof_check_time "0.001"
0 0 VernacProof "tac:no using:no"
4982 4986 proof_build_time "0.001"
0 0 trans_eq "0.001"
4982 4986 context_used ""
4982 4986 proof_check_time "0.000"
0 0 VernacProof "tac:no using:no"
5767 5771 proof_build_time "0.001"
0 0 trans_eq_example' "0.001"
5767 5771 context_used ""
5767 5771 proof_check_time "0.000"
0 0 VernacProof "tac:no using:no"
6294 6298 proof_build_time "0.001"
0 0 trans_eq_exercise "0.001"
6294 6298 context_used ""
6294 6298 proof_check_time "0.000"
0 0 VernacProof "tac:no using:no"
7891 7895 proof_build_time "0.001"
0 0 S_injective "0.001"
7891 7895 context_used ""
7891 7895 proof_check_time "0.000"
0 0 VernacProof "tac:no using:no"
8729 8733 proof_build_time "0.001"
0 0 S_injective' "0.001"
8729 8733 context_used ""
8729 8733 proof_check_time "0.000"
0 0 VernacProof "tac:no using:no"
9020 9024 proof_build_time "0.002"
0 0 injection_ex1 "0.002"
9020 9024 context_used ""
9020 9024 proof_check_time "0.001"
0 0 VernacProof "tac:no using:no"
9300 9304 proof_build_time "0.002"
0 0 injection_ex2 "0.002"
9300 9304 context_used ""
9300 9304 proof_check_time "0.000"
0 0 VernacProof "tac:no using:no"
9580 9584 proof_build_time "0.001"
0 0 injection_ex3 "0.001"
9580 9584 context_used ""
9580 9584 proof_check_time "0.000"
0 0 VernacProof "tac:no using:no"
10931 10935 proof_build_time "0.002"
0 0 eqb_0_l "0.002"
10931 10935 context_used ""
10931 10935 proof_check_time "0.000"
0 0 VernacProof "tac:no using:no"
11236 11240 proof_build_time "0.000"
0 0 discriminate_ex1 "0.000"
11236 11240 context_used ""
11236 11240 proof_check_time "0.000"
0 0 VernacProof "tac:no using:no"
11369 11373 proof_build_time "0.000"
0 0 discriminate_ex2 "0.000"
11369 11373 context_used ""
11369 11373 proof_check_time "0.000"
0 0 VernacProof "tac:no using:no"
11997 12001 proof_build_time "0.001"
0 0 discriminate_ex3 "0.001"
11997 12001 context_used ""
11997 12001 proof_check_time "0.000"
0 0 VernacProof "tac:no using:no"
12437 12441 proof_build_time "0.001"
0 0 f_equal "0.001"
12437 12441 context_used ""
12437 12441 proof_check_time "0.000"
0 0 VernacProof "tac:no using:no"
13013 13017 proof_build_time "0.000"
0 0 S_inj "0.000"
13013 13017 context_used ""
13013 13017 proof_check_time "0.000"
0 0 VernacProof "tac:no using:no"
14044 14048 proof_build_time "0.001"
0 0 silly3' "0.001"
14044 14048 context_used ""
14044 14048 proof_check_time "0.001"
0 0 VernacProof "tac:no using:no"
15289 15293 proof_build_time "0.005"
0 0 plus_n_n_injective "0.005"
15289 15293 context_used ""
15289 15293 proof_check_time "0.001"
0 0 VernacProof "tac:no using:no"
16745 16751 proof_build_time "0.003"
16745 16751 proof_check_time "0.000"
0 0 VernacProof "tac:no using:no"
20309 20313 proof_build_time "0.004"
0 0 double_injective "0.004"
20309 20313 context_used ""
20309 20313 proof_check_time "0.001"
0 0 VernacProof "tac:no using:no"
20998 21002 proof_build_time "0.003"
0 0 eqb_true "0.003"
20998 21002 context_used ""
20998 21002 proof_check_time "0.001"
21761 21834 context_used ""
0 0 VernacProof "tac:no using:no"
22602 22608 proof_build_time "0.003"
22602 22608 proof_check_time "0.000"
0 0 VernacProof "tac:no using:no"
24114 24118 proof_build_time "0.004"
0 0 double_injective_take2 "0.004"
24114 24118 context_used ""
24114 24118 proof_check_time "0.001"
0 0 VernacProof "tac:no using:no"
26441 26445 proof_build_time "0.002"
0 0 eqb_id_true "0.002"
26441 26445 context_used ""
26441 26445 proof_check_time "0.000"
0 0 VernacProof "tac:no using:no"
26897 26901 proof_build_time "0.003"
0 0 nth_error_after_last "0.003"
26897 26901 context_used ""
26897 26901 proof_check_time "0.001"
27213 27242 context_used ""
0 0 VernacProof "tac:no using:no"
28163 28167 proof_build_time "0.003"
0 0 square_mult "0.003"
28163 28167 context_used ""
28163 28167 proof_check_time "0.000"
28519 28548 context_used ""
0 0 VernacProof "tac:no using:no"
28859 28863 proof_build_time "0.001"
0 0 silly_fact_1 "0.001"
28859 28863 context_used ""
28859 28863 proof_check_time "0.000"
29034 29099 context_used ""
0 0 VernacProof "tac:no using:no"
29267 29273 proof_build_time "0.000"
29267 29273 proof_check_time "0.000"
0 0 VernacProof "tac:no using:no"
30343 30347 proof_build_time "0.002"
0 0 silly_fact_2 "0.002"
30343 30347 context_used ""
30343 30347 proof_check_time "0.000"
0 0 VernacProof "tac:no using:no"
30940 30944 proof_build_time "0.002"
0 0 silly_fact_2' "0.002"
30940 30944 context_used ""
30940 30944 proof_check_time "0.001"
31342 31446 context_used ""
0 0 VernacProof "tac:no using:no"
31753 31757 proof_build_time "0.002"
0 0 sillyfun_false "0.002"
31753 31757 context_used ""
31753 31757 proof_check_time "0.001"
32533 32751 context_used ""
0 0 VernacProof "tac:no using:no"
33258 33262 proof_build_time "0.007"
0 0 combine_split "0.007"
33258 33262 context_used ""
33258 33262 proof_check_time "0.003"
33758 33861 context_used ""
0 0 VernacProof "tac:no using:no"
34257 34263 proof_build_time "0.001"
34257 34263 proof_check_time "0.000"
0 0 VernacProof "tac:no using:no"
35887 35891 proof_build_time "0.003"
0 0 sillyfun1_odd "0.003"
35887 35891 context_used ""
35887 35891 proof_check_time "0.001"
0 0 VernacProof "tac:no using:no"
36356 36360 proof_build_time "0.004"
0 0 bool_fn_applied_thrice "0.004"
36356 36360 context_used ""
36356 36360 proof_check_time "0.001"
0 0 VernacProof "tac:no using:no"
39022 39026 proof_build_time "0.002"
0 0 eqb_sym "0.002"
39022 39026 context_used ""
39022 39026 proof_check_time "0.000"
0 0 VernacProof "tac:no using:no"
40132 40136 proof_build_time "0.002"
0 0 eqb_trans "0.002"
40132 40136 context_used ""
40132 40136 proof_check_time "0.000"
40831 41074 context_used ""
0 0 VernacProof "tac:no using:no"
41464 41468 proof_build_time "0.007"
0 0 split_combine "0.007"
41464 41468 context_used ""
41464 41468 proof_check_time "0.002"
41512 41584 context_used ""
0 0 VernacProof "tac:no using:no"
42240 42244 proof_build_time "0.004"
0 0 filter_exercise "0.004"
42240 42244 context_used ""
42240 42244 proof_check_time "0.001"
43140 43288 context_used ""
0 0 VernacProof "tac:no using:no"
43368 43372 proof_build_time "0.000"
0 0 test_forallb_1 "0.000"
43368 43372 context_used ""
43368 43372 proof_check_time "0.000"
0 0 VernacProof "tac:no using:no"
43454 43458 proof_build_time "0.000"
0 0 test_forallb_2 "0.000"
43454 43458 context_used ""
43454 43458 proof_check_time "0.000"
0 0 VernacProof "tac:no using:no"
43538 43542 proof_build_time "0.000"
0 0 test_forallb_3 "0.000"
43538 43542 context_used ""
43538 43542 proof_check_time "0.000"
0 0 VernacProof "tac:no using:no"
43616 43620 proof_build_time "0.000"
0 0 test_forallb_4 "0.000"
43616 43620 context_used ""
43616 43620 proof_check_time "0.000"
43622 43773 context_used ""
0 0 VernacProof "tac:no using:no"
43855 43859 proof_build_time "0.000"
0 0 test_existsb_1 "0.000"
43855 43859 context_used ""
43855 43859 proof_check_time "0.000"
0 0 VernacProof "tac:no using:no"
43952 43956 proof_build_time "0.000"
0 0 test_existsb_2 "0.000"
43952 43956 context_used ""
43952 43956 proof_check_time "0.000"
0 0 VernacProof "tac:no using:no"
44038 44042 proof_build_time "0.000"
0 0 test_existsb_3 "0.000"
44038 44042 context_used ""
44038 44042 proof_check_time "0.000"
0 0 VernacProof "tac:no using:no"
44115 44119 proof_build_time "0.000"
0 0 test_existsb_4 "0.000"
44115 44119 context_used ""
44115 44119 proof_check_time "0.000"
44121 44233 context_used ""
0 0 VernacProof "tac:no using:no"
44689 44693 proof_build_time "0.004"
0 0 existsb_existsb' "0.004"
44689 44693 context_used ""
44689 44693 proof_check_time "0.001"
0 0 vo_compile_time "0.733"
